…
    ## Parsed with column specification:
    ## cols(
    ##   .default = col_double(),
    ##   `Country Name` = col_character(),
    ##   `Country Code` = col_character(),
    ##   `Indicator Name` = col_character(),
    ##   `Indicator Code` = col_character(),
    ##   `2018` = col_logical(),
    ##   X64 = col_logical()
    ## )

    ## See spec(...) for full column specifications.

    ## # A tibble: 264 x 64
    ##    `Country Name` `Country Code` `Indicator Name` `Indicator Code` `1960`
    ##    <chr>          <chr>          <chr>            <chr>             <dbl>
    ##  1 Aruba          ABW            Interest rate s~ FR.INR.LNDP          NA
    ##  2 Afghanistan    AFG            Interest rate s~ FR.INR.LNDP          NA
    ##  3 Angola         AGO            Interest rate s~ FR.INR.LNDP          NA
    ##  4 Albania        ALB            Interest rate s~ FR.INR.LNDP          NA
    ##  5 Andorra        AND            Interest rate s~ FR.INR.LNDP          NA
    ##  6 Arab World     ARB            Interest rate s~ FR.INR.LNDP          NA
    ##  7 United Arab E~ ARE            Interest rate s~ FR.INR.LNDP          NA
    ##  8 Argentina      ARG            Interest rate s~ FR.INR.LNDP          NA
    ##  9 Armenia        ARM            Interest rate s~ FR.INR.LNDP          NA
    ## 10 American Samoa ASM            Interest rate s~ FR.INR.LNDP          NA
    ## # ... with 254 more rows, and 59 more variables: `1961` <dbl>,
    ## #   `1962` <dbl>, `1963` <dbl>, `1964` <dbl>, `1965` <dbl>, `1966` <dbl>,
    ## #   `1967` <dbl>, `1968` <dbl>, `1969` <dbl>, `1970` <dbl>, `1971` <dbl>,
    ## #   `1972` <dbl>, `1973` <dbl>, `1974` <dbl>, `1975` <dbl>, `1976` <dbl>,
    ## #   `1977` <dbl>, `1978` <dbl>, `1979` <dbl>, `1980` <dbl>, `1981` <dbl>,
    ## #   `1982` <dbl>, `1983` <dbl>, `1984` <dbl>, `1985` <dbl>, `1986` <dbl>,
    ## #   `1987` <dbl>, `1988` <dbl>, `1989` <dbl>, `1990` <dbl>, `1991` <dbl>,
    ## #   `1992` <dbl>, `1993` <dbl>, `1994` <dbl>, `1995` <dbl>, `1996` <dbl>,
    ## #   `1997` <dbl>, `1998` <dbl>, `1999` <dbl>, `2000` <dbl>, `2001` <dbl>,
…
``` r
library(janitor)

(dados <- dados %>%
  clean_names %>%
  select(-x64) %>%
  gather("ano", "spread", x1960:x2018) %>%
  mutate(ano = str_remove(ano, "x"),
         ano = as.numeric(ano)) %>%
  select(-starts_with("indicator")) %>%
  na.omit())
```

    ## # A tibble: 5,225 x 4
    ##    country_name   country_code   ano spread
    ##    <chr>          <chr>        <dbl>  <dbl>
    ##  1 Japan          JPN           1960  3.87
    ##  2 Japan          JPN           1961  3.92
    ##  3 Japan          JPN           1962  4.21
    ##  4 Japan          JPN           1963  3.79
    ##  5 Japan          JPN           1964  3.90
    ##  6 Japan          JPN           1965  3.80
    ##  7 France         FRA           1966  0.350
    ##  8 Japan          JPN           1966  3.48
    ##  9 France         FRA           1967  0.350
    ## 10 United Kingdom GBR           1967  1.29
    ## # ... with 5,215 more rows
…
